{
	"id": "d75cb384-ae09-4d4f-81ac-2468591983ac",
	"name": "Energica",
	"values": [
		{
			"key": "APIURL",
			"value": "127.0.0.1:3000/api",
			"enabled": true
		},
		{
			"key": "EMAIL",
			"value": "deaware@deaware.com",
			"enabled": true
		},
		{
			"key": "PASSWORD",
			"value": "deaw1234",
			"enabled": true
		},
		{
			"key": "USERNAME",
			"value": "deaware",
			"enabled": true
		},
		{
			"key": "token",
			"value": "eyJhbGciOiJIUzI1NiIsInR5cCI6IkpXVCJ9.eyJpZCI6IjVjZGQzYzU2NDU2MjZiMmMxZDExMDUyNyIsInVzZXJuYW1lIjoiZGVhd2FyZSIsImV4cCI6MTU2MzE4Njg4NSwiaWF0IjoxNTU4MDAyODg1fQ.mQPWnBZmmrQzeFEbXRA2jjNM6TG7cG-b0CXOuJ8uYTY",
			"enabled": true
		}
	],
	"_postman_variable_scope": "environment",
	"_postman_exported_at": "2019-05-20T03:07:39.588Z",
	"_postman_exported_using": "Postman/7.1.0"
}