[
    {
        "device_id":"bol-000001",
        "data":[
            {"t":"t1","v":100},
            {"t":"t2","v":100},
            {"t":"t3","v":100},
            {"t":"t4","v":120}
        ],
        "timestamp":"2019-02-19 16:51:48.588"
    },

    {
        "device_id":"bol-000001",
        "data":[
            {"t":"t1","v":100},
            {"t":"t2","v":100},
            {"t":"t3","v":100},
            {"t":"t4","v":120},
            {"t":"t5","v":120},
            {"t":"ps1","v":120},
            {"t":"ps2","v":120},
            {"t":"ps3","v":120}
        ],
        "timestamp":"2019-02-19 16:52:48.588"
    },
    
    {
        "device_id":"bol-000001",
        "data":[
            {"t":"t1","v":100},
            {"t":"t2","v":100},
            {"t":"t3","v":100},
            {"t":"t4","v":120},
            {"t":"t5","v":120},
            {"t":"ps1","v":120},
            {"t":"fl1","v":120},
            {"t":"m1","v":120},
        ],
        "timestamp":"2019-02-19 16:53:48.588"
    }

]