[
{"sensor_id":"PT000001","sensor_name":"PT100","device_id":"bol-000001","sensor_desc":"Steam Temperature","field_device_id":"1","tag":"t1","val":0 ,"unit":"C" },
{"sensor_id":"PT000002","sensor_name":"PT100","device_id":"bol-000001","sensor_desc":"inlet Water Temperature","field_device_id":"1","tag":"t2","val":0 ,"unit":"C"},
{"sensor_id":"PT000003","sensor_name":"PT100","device_id":"ahu-000001","sensor_desc":"Room Temperature1","field_device_id":"1","tag":"t1","val":0 ,"unit":"C"},
{"sensor_id":"PT000004","sensor_name":"PT100","device_id":"ahu-000001","sensor_desc":"Room Temperature2","field_device_id":"1","tag":"t2","val":0 ,"unit":"C"},
{"sensor_id":"PT000005","sensor_name":"PT100","device_id":"ahu-000002","sensor_desc":"Room Temperature1","field_device_id":"1","tag":"t1","val":0 ,"unit":"C"},
{"sensor_id":"PT000006","sensor_name":"PT100","device_id":"ahu-000002","sensor_desc":"Room Temperature2","field_device_id":"1","tag":"t2","val":0 ,"unit":"C"},
{"sensor_id":"PT000007","sensor_name":"PT100","device_id":"ahu-000003","sensor_desc":"Room Temperature1","field_device_id":"1","tag":"t1","val":0 ,"unit":"C"},
{"sensor_id":"PT000008","sensor_name":"PT100","device_id":"ahu-000003","sensor_desc":"Room Temperature2","field_device_id":"1","tag":"t2","val":0 ,"unit":"C"},
{"sensor_id":"PT000009","sensor_name":"PT100","device_id":"ahu-000004","sensor_desc":"Room Temperature1","field_device_id":"1","tag":"t1","val":0 ,"unit":"C"},
{"sensor_id":"PT000010","sensor_name":"PT100","device_id":"ahu-000004","sensor_desc":"Room Temperature2","field_device_id":"1","tag":"t2","val":0 ,"unit":"C"},
{"sensor_id":"PT000011","sensor_name":"PT100","device_id":"chl-000001","sensor_desc":"Chiller water inlet (CWS)","field_device_id":"1","tag":"t1","val":0 ,"unit":"C"},
{"sensor_id":"PT000012","sensor_name":"PT100","device_id":"chl-000001","sensor_desc":"Chiller water outlet (CWR) ","field_device_id":"1","tag":"t2","val":0 ,"unit":"C"},
{"sensor_id":"PT000013","sensor_name":"PT100","device_id":"chl-000001","sensor_desc":"Condensor water inlet (CDR)","field_device_id":"1","tag":"t3","val":0 ,"unit":"C"},
{"sensor_id":"PT000014","sensor_name":"PT100","device_id":"chl-000001","sensor_desc":"Condensor water outlet (CDS)","field_device_id":"1","tag":"t4","val":0 ,"unit":"C"},
{"sensor_id":"PT000015","sensor_name":"PT100","device_id":"chl-000003","sensor_desc":"Chiller water inlet (CWS)","field_device_id":"1","tag":"t5","val":0 ,"unit":"C"},
{"sensor_id":"PT000016","sensor_name":"PT100","device_id":"chl-000003","sensor_desc":"Chiller water outlet (CWS)","field_device_id":"1","tag":"t6","val":0 ,"unit":"C"},
{"sensor_id":"PT000017","sensor_name":"PT100","device_id":"chl-000003","sensor_desc":"Condensor water inlet (CDR)","field_device_id":"1","tag":"t7","val":0 ,"unit":"C"},
{"sensor_id":"PT000018","sensor_name":"PT100","device_id":"chl-000003","sensor_desc":"Condensor water outlet (CDR)","field_device_id":"1","tag":"t8","val":0 ,"unit":"C"},

{"sensor_id":"PMV000001","sensor_name":"meter","device_id":"ahu-000001","sensor_desc":"PowerMeter V","field_device_id":"4","tag":"v1","val":0 ,"unit":"V"},
{"sensor_id":"PMA000001","sensor_name":"meter","device_id":"ahu-000001","sensor_desc":"PowerMeter I","field_device_id":"4","tag":"i1","val":0 ,"unit":"A"},
{"sensor_id":"PMP000001","sensor_name":"meter","device_id":"ahu-000001","sensor_desc":"PowerMeter Pt0t","field_device_id":"4","tag":"p1","val":0 ,"unit":"kW"},
{"sensor_id":"PME000001","sensor_name":"meter","device_id":"ahu-000001","sensor_desc":"PowerMeter E-Del","field_device_id":"4","tag":"e1","val":0 ,"unit":"WH"},

{"sensor_id":"PMV000002","sensor_name":"meter","device_id":"ahu-000002","sensor_desc":"PowerMeter V","field_device_id":"4","tag":"v1","val":0 ,"unit":"V"},
{"sensor_id":"PMA000002","sensor_name":"meter","device_id":"ahu-000002","sensor_desc":"PowerMeter I","field_device_id":"4","tag":"i1","val":0 ,"unit":"A"},
{"sensor_id":"PMP000002","sensor_name":"meter","device_id":"ahu-000002","sensor_desc":"PowerMeter Pt0t","field_device_id":"4","tag":"p1","val":0 ,"unit":"kW"},
{"sensor_id":"PME000002","sensor_name":"meter","device_id":"ahu-000002","sensor_desc":"PowerMeter E-Del","field_device_id":"4","tag":"e1","val":0 ,"unit":"WH"},

{"sensor_id":"PMV000003","sensor_name":"meter","device_id":"ahu-000003","sensor_desc":"PowerMeter V","field_device_id":"4","tag":"v1","val":0 ,"unit":"V"},
{"sensor_id":"PMA000003","sensor_name":"meter","device_id":"ahu-000003","sensor_desc":"PowerMeter I","field_device_id":"4","tag":"i1","val":0 ,"unit":"A"},
{"sensor_id":"PMP000003","sensor_name":"meter","device_id":"ahu-000003","sensor_desc":"PowerMeter Pt0t","field_device_id":"4","tag":"p1","val":0 ,"unit":"kW"},
{"sensor_id":"PME000003","sensor_name":"meter","device_id":"ahu-000003","sensor_desc":"PowerMeter E-Del","field_device_id":"4","tag":"e1","val":0 ,"unit":"WH"},

{"sensor_id":"PMV000004","sensor_name":"meter","device_id":"ahu-000004","sensor_desc":"PowerMeter V","field_device_id":"4","tag":"v1","val":0 ,"unit":"V"},
{"sensor_id":"PMA000004","sensor_name":"meter","device_id":"ahu-000004","sensor_desc":"PowerMeter I","field_device_id":"4","tag":"i1","val":0 ,"unit":"A"},
{"sensor_id":"PMP000004","sensor_name":"meter","device_id":"ahu-000004","sensor_desc":"PowerMeter Pt0t","field_device_id":"4","tag":"p1","val":0 ,"unit":"kW"},
{"sensor_id":"PME000004","sensor_name":"meter","device_id":"ahu-000004","sensor_desc":"PowerMeter E-Del","field_device_id":"4","tag":"e1","val":0 ,"unit":"WH"},

{"sensor_id":"VSDV000001","sensor_name":"vsd","device_id":"vsd-000001","sensor_desc":"PowerMeter V","field_device_id":"4","tag":"v1","val":0 ,"unit":"V"},
{"sensor_id":"VSDA000001","sensor_name":"vsd","device_id":"vsd-000001","sensor_desc":"PowerMeter I","field_device_id":"4","tag":"i1","val":0 ,"unit":"A"},
{"sensor_id":"VSDP000001","sensor_name":"vsd","device_id":"vsd-000001","sensor_desc":"PowerMeter Pt0t","field_device_id":"4","tag":"p1","val":0 ,"unit":"kW"},
{"sensor_id":"VSDE000001","sensor_name":"vsd","device_id":"vsd-000001","sensor_desc":"PowerMeter E-Del","field_device_id":"4","tag":"e1","val":0 ,"unit":"WH"},
{"sensor_id":"VSDS000001","sensor_name":"vsd","device_id":"vsd-000001","sensor_desc":"PowerMeter E-Del","field_device_id":"4","tag":"e1","val":0 ,"unit":"Hz"},

{"sensor_id":"PMV000005","sensor_name":"meter","device_id":"chl-000002","sensor_desc":"P1  V","field_device_id":"4","tag":"v1","val":0 ,"unit":"V"},
{"sensor_id":"PMA000005","sensor_name":"meter","device_id":"chl-000002","sensor_desc":"P1 I","field_device_id":"4","tag":"i1","val":0 ,"unit":"A"},
{"sensor_id":"PME000005","sensor_name":"meter","device_id":"chl-000002","sensor_desc":"P1 E-Del","field_device_id":"4","tag":"e1","val":0 ,"unit":"WH"},

{"sensor_id":"PMV000006","sensor_name":"meter","device_id":"chl-000002","sensor_desc":"P2  V","field_device_id":"4","tag":"v2","val":0 ,"unit":"V"},
{"sensor_id":"PMA000006","sensor_name":"meter","device_id":"chl-000002","sensor_desc":"P2 I","field_device_id":"4","tag":"i2","val":0 ,"unit":"A"},
{"sensor_id":"PME000006","sensor_name":"meter","device_id":"chl-000002","sensor_desc":"P2 E-Del","field_device_id":"4","tag":"e2","val":0 ,"unit":"WH"},

{"sensor_id":"PMV000007","sensor_name":"meter","device_id":"chl-000002","sensor_desc":"P3  V","field_device_id":"4","tag":"v3","val":0 ,"unit":"V"},
{"sensor_id":"PMA000007","sensor_name":"meter","device_id":"chl-000002","sensor_desc":"P3 I","field_device_id":"4","tag":"i3","val":0 ,"unit":"A"},
{"sensor_id":"PME000007","sensor_name":"meter","device_id":"chl-000002","sensor_desc":"P3 E-Del","field_device_id":"4","tag":"e3","val":0 ,"unit":"WH"},


{"sensor_id":"PMV000008","sensor_name":"meter","device_id":"chl-000004","sensor_desc":"P4  V","field_device_id":"4","tag":"v4","val":0 ,"unit":"V"},
{"sensor_id":"PMA000008","sensor_name":"meter","device_id":"chl-000004","sensor_desc":"P4 I","field_device_id":"4","tag":"i4","val":0 ,"unit":"A"},
{"sensor_id":"PME000008","sensor_name":"meter","device_id":"chl-000004","sensor_desc":"P4 E-Del","field_device_id":"4","tag":"e4","val":0 ,"unit":"WH"},


{"sensor_id":"PMV000009","sensor_name":"meter","device_id":"chl-000004","sensor_desc":"P5  V","field_device_id":"4","tag":"v5","val":0 ,"unit":"V"},
{"sensor_id":"PMA000009","sensor_name":"meter","device_id":"chl-000004","sensor_desc":"P5 I","field_device_id":"4","tag":"i5","val":0 ,"unit":"A"},
{"sensor_id":"PME000009","sensor_name":"meter","device_id":"chl-000004","sensor_desc":"P5 E-Del","field_device_id":"4","tag":"e5","val":0 ,"unit":"WH"},

{"sensor_id":"PMV000010","sensor_name":"meter","device_id":"chl-000004","sensor_desc":"P6  V","field_device_id":"4","tag":"v6","val":0 ,"unit":"V"},
{"sensor_id":"PMA000010","sensor_name":"meter","device_id":"chl-000004","sensor_desc":"P6 I","field_device_id":"4","tag":"i6","val":0 ,"unit":"A"},
{"sensor_id":"PME000010","sensor_name":"meter","device_id":"chl-000004","sensor_desc":"P6 E-Del","field_device_id":"4","tag":"e6","val":0 ,"unit":"WH"},

{"sensor_id":"PMV000011","sensor_name":"meter","device_id":"chl-000005","sensor_desc":"P7  V","field_device_id":"4","tag":"v7","val":0 ,"unit":"V"},
{"sensor_id":"PMA000011","sensor_name":"meter","device_id":"chl-000005","sensor_desc":"P7 I","field_device_id":"4","tag":"i7","val":0 ,"unit":"A"},
{"sensor_id":"PME000011","sensor_name":"meter","device_id":"chl-000005","sensor_desc":"P7 E-Del","field_device_id":"4","tag":"e7","val":0 ,"unit":"WH"},

{"sensor_id":"PMV000012","sensor_name":"meter","device_id":"chl-000005","sensor_desc":"P8  V","field_device_id":"4","tag":"v8","val":0 ,"unit":"V"},
{"sensor_id":"PMA000012","sensor_name":"meter","device_id":"chl-000005","sensor_desc":"P8 I","field_device_id":"4","tag":"i8","val":0 ,"unit":"A"},
{"sensor_id":"PME000012","sensor_name":"meter","device_id":"chl-000005","sensor_desc":"P8 E-Del","field_device_id":"4","tag":"e8","val":0 ,"unit":"WH"},

{"sensor_id":"PMV000013","sensor_name":"meter","device_id":"chl-000005","sensor_desc":"P9  V","field_device_id":"4","tag":"v9","val":0 ,"unit":"V"},
{"sensor_id":"PMA000013","sensor_name":"meter","device_id":"chl-000005","sensor_desc":"P9 I","field_device_id":"4","tag":"i9","val":0 ,"unit":"A"},
{"sensor_id":"PME000013","sensor_name":"meter","device_id":"chl-000005","sensor_desc":"P9 E-Del","field_device_id":"4","tag":"e9","val":0 ,"unit":"WH"}



]